{
    "name": "dynamicitems",
    "title": "Dynamic Items",
    "description": "Items that apply bonuses/woes when dropped into an inventory",
    "version": "0.0.39",
    "author": "tposney",
    "minimumCoreVersion": "0.4.2",
    "languages": [
        {
            "lang": "en",
            "name": "English",
            "path": "lang/en.json"
        },
        {
            "lang": "ja",
            "name": " 日本語",
            "path": "lang/ja.json"
        }
    ],
    "systems": ["dnd5e"],
        "styles": ["css/styles.css"], 
    "scripts": [
        "settings.js",
        "lib/lib.js",
        "main.js"
    ],
    "packs": [
        {
        "name": "packs",
        "label": "Premade Items",
        "system": "dnd5e",
        "path": "./packs/packs.db",
        "module": "world",
        "entity": "Item",
        "lang": ["en", "de"]
      },
      {
        "name": "packs_ja",
        "label": "サンプル辞典",
        "system": "dnd5e",
        "path": "./packs/packs_ja.db",
        "module": "world",
        "entity": "Item",
        "lang": ["ja"]

      }

    ],
    "url": "https://gitlab.com/tposney/dynamicitems/tree/master",
    "manifest": "https://gitlab.com/tposney/dynamicitems/raw/master/039/module.json",
    "download": "https://gitlab.com/tposney/dynamicitems/raw/59321ba22e2030c8e3a98288d2f3ad0b9481a052/dynamicitems.zip"
}
